<?xml version="1.0" encoding="UTF-8" standalone="no"?>
<svg
   xmlns:dc="http://purl.org/dc/elements/1.1/"
   xmlns:cc="http://creativecommons.org/ns#"
   xmlns:rdf="http://www.w3.org/1999/02/22-rdf-syntax-ns#"
   xmlns:svg="http://www.w3.org/2000/svg"
   xmlns="http://www.w3.org/2000/svg"
   xml:space="preserve"
   style="enable-background:new 0 0 512 512;"
   viewBox="0 0 512 512"
   y="0px"
   x="0px"
   id="Layer_1"
   version="1.1"><metadata
     id="metadata63"><rdf:RDF><cc:Work
         rdf:about=""><dc:format>image/svg+xml</dc:format><dc:type
           rdf:resource="http://purl.org/dc/dcmitype/StillImage" /><dc:title></dc:title></cc:Work></rdf:RDF></metadata><defs
     id="defs61" /><g
     id="g3"><path
       id="path5"
       d="M233.712,329.351c-74.955,0-135.936-60.981-135.936-135.936V97.932   c0-7.774,6.303-14.077,14.077-14.077s14.077,6.302,14.077,14.077v95.484c0,59.433,48.351,107.783,107.783,107.783   s107.783-48.351,107.783-107.783v-24.804c0-7.774,6.303-14.077,14.077-14.077c7.773,0,14.077,6.302,14.077,14.077v24.804   C369.648,268.37,308.667,329.351,233.712,329.351z"
       style="fill:#2D527C;" /><path
       id="path7"
       d="M380.007,112.008H87.416c-7.773,0-14.077-6.302-14.077-14.077s6.303-14.077,14.077-14.077h292.589   c7.773,0,14.077,6.302,14.077,14.077S387.78,112.008,380.007,112.008z"
       style="fill:#2D527C;" /></g><path
     id="path9"
     d="M189.431,97.932h-49.662V38.908c0-13.713,11.118-24.831,24.831-24.831l0,0  c13.713,0,24.831,11.118,24.831,24.831V97.932z"
     style="fill:#CEE8FA;" /><path
     id="path11"
     d="M189.431,112.008h-49.662c-7.773,0-14.077-6.302-14.077-14.077V38.908  C125.693,17.453,143.146,0,164.6,0c21.453,0,38.908,17.453,38.908,38.908v59.024C203.508,105.706,197.204,112.008,189.431,112.008z   M153.846,83.855h21.509V38.908c0-5.93-4.824-10.754-10.754-10.754s-10.756,4.824-10.756,10.754v44.948H153.846z"
     style="fill:#2D527C;" /><path
     id="path13"
     d="M327.653,97.932h-49.662V38.908c0-13.713,11.118-24.831,24.831-24.831l0,0  c13.713,0,24.831,11.118,24.831,24.831V97.932z"
     style="fill:#CEE8FA;" /><path
     id="path15"
     d="M327.653,112.008h-49.661c-7.773,0-14.077-6.302-14.077-14.077V38.908  C263.916,17.453,281.369,0,302.823,0s38.908,17.453,38.908,38.908v59.024C341.73,105.706,335.428,112.008,327.653,112.008z   M292.069,83.855h21.508V38.908c0-5.93-4.824-10.754-10.754-10.754c-5.93,0-10.754,4.824-10.754,10.754v44.948H292.069z"
     style="fill:#2D527C;" /><rect
     id="rect17"
     height="61.503"
     width="105.602"
     style="fill:#CEE8FA;"
     y="301.702"
     x="180.912" /><g
     id="g19"><path
       id="path21"
       d="M286.509,377.285H180.914c-7.773,0-14.077-6.302-14.077-14.077v-61.502   c0-7.774,6.303-14.077,14.077-14.077h105.595c7.773,0,14.077,6.302,14.077,14.077v61.502   C300.585,370.983,294.282,377.285,286.509,377.285z M194.99,349.132h77.442v-33.349H194.99V349.132z"
       style="fill:#2D527C;" /><path
       id="path23"
       d="M281.43,512c-34.074,0-61.795-27.721-61.795-61.795V363.21c0-7.774,6.303-14.077,14.077-14.077   c7.773,0,14.077,6.302,14.077,14.077v86.996c0,18.55,15.091,33.641,33.64,33.641s33.642-15.091,33.642-33.641v-10.267   c0-7.775,6.303-14.077,14.077-14.077c7.773,0,14.077,6.302,14.077,14.077v10.267C343.225,484.278,315.504,512,281.43,512z"
       style="fill:#2D527C;" /><path
       id="path27"
       d="M286.509,166.614H111.851c-7.773,0-14.077-6.302-14.077-14.077c0-7.774,6.303-14.077,14.077-14.077   h174.656c7.773,0,14.077,6.302,14.077,14.077C300.584,160.312,294.282,166.614,286.509,166.614z"
       style="fill:#2D527C;" /></g><g
     id="g29" /><g
     id="g31" /><g
     id="g33" /><g
     id="g35" /><g
     id="g37" /><g
     id="g39" /><g
     id="g41" /><g
     id="g43" /><g
     id="g45" /><g
     id="g47" /><g
     id="g49" /><g
     id="g51" /><g
     id="g53" /><g
     id="g55" /><g
     id="g57" /><g
     id="g4191"
     transform="matrix(0.72478619,0,0,0.72478619,185.20908,135.09323)"><path
       style="fill:#2d527c;fill-opacity:1"
       d="m 331,286 0,60 c 0,8.399 -6.599,15 -15,15 -8.401,0 -15,-6.601 -15,-15 l 0,-60 c 0,-24.901 -20.099,-45 -45,-45 -24.901,0 -45,20.099 -45,45 l 0,60 c 0,8.399 -6.599,15 -15,15 -8.401,0 -15,-6.601 -15,-15 l 0,-60 c 0,-41.4 33.6,-75 75,-75 41.4,0 75,33.6 75,75 z"
       id="path15-9" /><path
       style="fill:#254366;fill-opacity:1"
       d="m 331,286 0,60 c 0,8.399 -6.599,15 -15,15 -8.401,0 -15,-6.601 -15,-15 l 0,-60 c 0,-24.901 -20.099,-45 -45,-45 l 0,-30 c 41.4,0 75,33.6 75,75 z"
       id="path17" /><path
       style="fill:#fea832"
       d="m 316,331 -120,0 c -24.901,0 -45,21.099 -45,46 l 0,90 c 0,24.899 20.099,45 45,45 l 120,0 c 24.901,0 45,-20.101 45,-45 l 0,-90 c 0,-24.901 -20.099,-46 -45,-46 z"
       id="path19" /><path
       style="fill:#fe9923"
       d="m 361,377 0,90 c 0,24.899 -20.099,45 -45,45 l -60,0 0,-181 60,0 c 24.901,0 45,21.099 45,46 z"
       id="path21-3" /><path
       style="fill:#2d527c;fill-opacity:1"
       d="m 271,407 0,30 c 0,8.399 -6.599,15 -15,15 -8.401,0 -15,-6.601 -15,-15 l 0,-30 c 0,-8.401 6.599,-15 15,-15 8.401,0 15,6.599 15,15 z"
       id="path23-3" /><path
       style="fill:#254366;fill-opacity:1"
       d="m 271,407 0,30 c 0,8.399 -6.599,15 -15,15 l 0,-60 c 8.401,0 15,6.599 15,15 z"
       id="path25-8" /></g></svg>